ISSS608-VAA - Take-home Exercise 1
…
  category (string factor): a string describing the expense category, one of {“Education”, “Food”, “Recreation”, “RentAdjustment”, “Shelter”, “Wage”}

  amount (double): the amount of the transaction

4. Install, launch R packages and load data

Reading the paticipants csv and financialjournal csv

pacman::p_load(tidyverse,dplyr)

p_data <- read_csv("data/Participants.csv") %>% mutate_if(is.character, as.factor)
p_data %>% distinct()

# A tibble: 1,011 × 7
   participantId householdSize haveKids   age educationLevel      interestGroup
           <dbl>         <dbl> <lgl>    <dbl> <fct>               <fct>        
 1             0             3 TRUE        36 HighSchoolOrCollege H            
 2             1             3 TRUE        25 HighSchoolOrCollege B            
 3             2             3 TRUE        35 HighSchoolOrCollege A            
 4             3             3 TRUE        21 HighSchoolOrCollege I            
 5             4             3 TRUE        43 Bachelors           H            
 6             5             3 TRUE        32 HighSchoolOrCollege D            
 7             6             3 TRUE        26 HighSchoolOrCollege I            
 8             7             3 TRUE        27 Bachelors           A            
 9             8             3 TRUE        20 Bachelors           G            
10             9             3 TRUE        35 Bachelors           D            
# ℹ 1,001 more rows
# ℹ 1 more variable: joviality <dbl>

fin_data <- read_csv("data/FinancialJournal.csv") %>% mutate_if(is.character, as.factor) %>% distinct() 
fin_data$timestamp <- format(as.Date(fin_data$timestamp), "%Y-%m") 
fin_data

# A tibble: 1,512,523 × 4
   participantId timestamp category  amount
           <dbl> <chr>     <fct>      <dbl>
 1             0 2022-03   Wage      2473. 
 2             0 2022-03   Shelter   -555. 
 3             0 2022-03   Education  -38.0
 4             1 2022-03   Wage      2047. 
 5             1 2022-03   Shelter   -555. 
 6             1 2022-03   Education  -38.0
 7             2 2022-03   Wage      2437. 
 8             2 2022-03   Shelter   -557. 
 9             2 2022-03   Education  -12.8
10             3 2022-03   Wage      2367. 
# ℹ 1,512,513 more rows

Modify the time style of the financial data, pivot the catogory and regroup and calculate the Savings

f_data <- fin_data %>% group_by(participantId,timestamp,category) %>% 
  summarise(total_amount=sum(amount),
            .groups = 'drop') %>%
  as.data.frame()
f_data <- f_data %>%
  pivot_wider(.,names_from = "category", values_from = "total_amount") 
f_data <- replace(f_data, is.na(f_data), 0) %>%
    mutate(Saving = select(., Education:RentAdjustment) %>% rowSums(na.rm = TRUE))
f_data

# A tibble: 10,691 × 9
   participantId timestamp Education  Food Recreation Shelter   Wage
           <dbl> <chr>         <dbl> <dbl>      <dbl>   <dbl>  <dbl>
 1             0 2022-03       -38.0 -268.     -349.    -555. 11932.
 2             0 2022-04       -38.0 -266.     -219.    -555.  8637.
 3             0 2022-05       -38.0 -265.     -383.    -555.  9048.
 4             0 2022-06       -38.0 -257.     -466.    -555.  9048.
 5             0 2022-07       -38.0 -270.    -1070.    -555.  8637.
 6             0 2022-08       -38.0 -262.     -314.    -555.  9459.
 7             0 2022-09       -38.0 -256.     -295.    -555.  9048.
 8             0 2022-10       -38.0 -267.      -25.0   -555.  8637.
 9             0 2022-11       -38.0 -261.     -377.    -555.  9048.
10             0 2022-12       -38.0 -266.     -357.    -555.  9048.
# ℹ 10,681 more rows
# ℹ 2 more variables: RentAdjustment <dbl>, Saving <dbl>
…
